Full corpus results
…
Large distances

The maximum distance can be large, I will look at the values from the
highest.

agrs %>% group_by(distance) %>% count() %>% arrange(desc(distance))

## # A tibble: 105 × 2
## # Groups:   distance [105]
##    distance     n
##       <int> <int>
##  1     1124     1
##  2     1029     1
##  3      994     1
##  4      800     1
##  5      799     1
##  6      527     1
##  7      411     1
##  8      281     2
##  9      276     1
## 10      275     1
## # ℹ 95 more rows
…
agrs %>% 
  filter((!grepl("pl", source_morph_descr)&!grepl("pl", target_morph_descr))|source_cat == "depreciative") -> agrs

Lists in sentences

I know that in the corpus sometimes there are sentences that are
actually just lists of people with certain functions, which gives me a
lot of results that aren’t actually useful.

agrs %>% group_by(sentence_id) %>% count() %>% arrange(desc(n))

## # A tibble: 136,278 × 2
## # Groups:   sentence_id [136,278]
##    sentence_id     n
##          <int> <int>
##  1     7708943     8
##  2     2517756     7
##  3      252275     6
##  4      279568     6
##  5      281496     6
##  6      441945     6
##  7      713555     6
##  8     1585103     6
##  9     1761883     6
## 10     1848972     6
## # ℹ 136,268 more rows
…
